{"data":[{"uuid":"9b97f1c7-2fe3-4a36-91ac-2f6c882b287c","status":"ACTIVE","category":"DEFAULT"},{"uuid":"9c8390a6-7792-45bb-b328-e569f5c188e9","status":"ACTIVE","category":"DEFAULT"},{"uuid":"9c8390a8-5e2c-4a89-b7e3-cb3d009cafcd","status":"ACTIVE","category":"DEFAULT"},{"uuid":"9c8390ac-5edf-4fc8-9de0-2c23e2d6cd5a","status":"ACTIVE","category":"DEFAULT"},{"uuid":"9c8390b0-37cd-4a38-b9fb-f431d49eebda","status":"ACTIVE","category":"DEFAULT"}],"links":[{"url":null,"label":"Anterior","page":null,"active":false},{"url":"https:\/\/foundation-api-canary.poli.digital\/v3\/accounts\/9b8af98e-0407-49a2-bce9-3620f29c513a\/tags?category=DEFAULT&per_page=5&include=category%2Cstatus%2Cname&page=1","label":"1","page":1,"active":true},{"url":"https:\/\/foundation-api-canary.poli.digital\/v3\/accounts\/9b8af98e-0407-49a2-bce9-3620f29c513a\/tags?category=DEFAULT&per_page=5&include=category%2Cstatus%2Cname&page=2","label":"2","page":2,"active":false},{"url":"https:\/\/foundation-api-canary.poli.digital\/v3\/accounts\/9b8af98e-0407-49a2-bce9-3620f29c513a\/tags?category=DEFAULT&per_page=5&include=category%2Cstatus%2Cname&page=3","label":"3","page":3,"active":false},{"url":"https:\/\/foundation-api-canary.poli.digital\/v3\/accounts\/9b8af98e-0407-49a2-bce9-3620f29c513a\/tags?category=DEFAULT&per_page=5&include=category%2Cstatus%2Cname&page=4","label":"4","page":4,"active":false},{"url":"https:\/\/foundation-api-canary.poli.digital\/v3\/accounts\/9b8af98e-0407-49a2-bce9-3620f29c513a\/tags?category=DEFAULT&per_page=5&include=category%2Cstatus%2Cname&page=5","label":"5","page":5,"active":false},{"url":"https:\/\/foundation-api-canary.poli.digital\/v3\/accounts\/9b8af98e-0407-49a2-bce9-3620f29c513a\/tags?category=DEFAULT&per_page=5&include=category%2Cstatus%2Cname&page=6","label":"6","page":6,"active":false},{"url":"https:\/\/foundation-api-canary.poli.digital\/v3\/accounts\/9b8af98e-0407-49a2-bce9-3620f29c513a\/tags?category=DEFAULT&per_page=5&include=category%2Cstatus%2Cname&page=7","label":"7","page":7,"active":false},{"url":"https:\/\/foundation-api-canary.poli.digital\/v3\/accounts\/9b8af98e-0407-49a2-bce9-3620f29c513a\/tags?category=DEFAULT&per_page=5&include=category%2Cstatus%2Cname&page=8","label":"8","page":8,"active":false},{"url":"https:\/\/foundation-api-canary.poli.digital\/v3\/accounts\/9b8af98e-0407-49a2-bce9-3620f29c513a\/tags?category=DEFAULT&per_page=5&include=category%2Cstatus%2Cname&page=9","label":"9","page":9,"active":false},{"url":"https:\/\/foundation-api-canary.poli.digital\/v3\/accounts\/9b8af98e-0407-49a2-bce9-3620f29c513a\/tags?category=DEFAULT&per_page=5&include=category%2Cstatus%2Cname&page=10","label":"10","page":10,"active":false},{"url":null,"label":"...","active":false},{"url":"https:\/\/foundation-api-canary.poli.digital\/v3\/accounts\/9b8af98e-0407-49a2-bce9-3620f29c513a\/tags?category=DEFAULT&per_page=5&include=category%2Cstatus%2Cname&page=22","label":"22","page":22,"active":false},{"url":"https:\/\/foundation-api-canary.poli.digital\/v3\/accounts\/9b8af98e-0407-49a2-bce9-3620f29c513a\/tags?category=DEFAULT&per_page=5&include=category%2Cstatus%2Cname&page=23","label":"23","page":23,"active":false},{"url":"https:\/\/foundation-api-canary.poli.digital\/v3\/accounts\/9b8af98e-0407-49a2-bce9-3620f29c513a\/tags?category=DEFAULT&per_page=5&include=category%2Cstatus%2Cname&page=2","label":"Pr\u00f3xima","page":2,"active":false}],"meta":{"current_page":1,"first_page_url":"https:\/\/foundation-api-canary.poli.digital\/v3\/accounts\/9b8af98e-0407-49a2-bce9-3620f29c513a\/tags?category=DEFAULT&per_page=5&include=category%2Cstatus%2Cname&page=1","from":1,"last_page":23,"last_page_url":"https:\/\/foundation-api-canary.poli.digital\/v3\/accounts\/9b8af98e-0407-49a2-bce9-3620f29c513a\/tags?category=DEFAULT&per_page=5&include=category%2Cstatus%2Cname&page=23","next_page_url":"https:\/\/foundation-api-canary.poli.digital\/v3\/accounts\/9b8af98e-0407-49a2-bce9-3620f29c513a\/tags?category=DEFAULT&per_page=5&include=category%2Cstatus%2Cname&page=2","path":"https:\/\/foundation-api-canary.poli.digital\/v3\/accounts\/9b8af98e-0407-49a2-bce9-3620f29c513a\/tags","per_page":5,"prev_page_url":null,"to":5,"total":115}}
HTTP:200
