{"data":[{"uuid":"9b97f1c7-2fe3-4a36-91ac-2f6c882b287c"},{"uuid":"9c8390a6-7792-45bb-b328-e569f5c188e9"},{"uuid":"9c8390a8-5e2c-4a89-b7e3-cb3d009cafcd"},{"uuid":"9c8390ac-5edf-4fc8-9de0-2c23e2d6cd5a"},{"uuid":"9c8390b0-37cd-4a38-b9fb-f431d49eebda"},{"uuid":"9c8390b0-be20-4dac-9926-54de211ff255"},{"uuid":"9c8390b5-ebba-4ef1-98de-c9f4ac6a2e6e"},{"uuid":"9c8390b7-4ee6-409d-bc82-fed131861c4b"},{"uuid":"9c8390b7-67a9-4b2f-a379-0d934325f233"},{"uuid":"9c8390bc-1489-4006-8d03-166eb735ee3c"},{"uuid":"9c8390bd-f443-4c93-8476-622408ae67ea"},{"uuid":"9c8390be-bea1-463c-83cf-d97b0593e29b"},{"uuid":"9bfd28dd-48fe-42bc-a610-b282f1b3097e"},{"uuid":"9c8390ca-0d6c-4c0c-a098-d2405c4d46ea"},{"uuid":"9c8390cd-58d1-4125-9c62-ccbcef9612f6"},{"uuid":"9c8390cd-6202-4737-b569-3d4748a8bcf2"},{"uuid":"9c8390ce-2385-44ce-9a48-7c07dc9225bd"},{"uuid":"9c8390d1-53e3-4d75-b6ab-922ddbcc427d"},{"uuid":"9c8390d3-5c18-48bb-865a-3c5c5d03c37b"},{"uuid":"9c8390d4-a6f8-47a4-973a-72e56c062ca6"}],"links":[{"url":null,"label":"Anterior","page":null,"active":false},{"url":"https:\/\/foundation-api-canary.poli.digital\/v3\/accounts\/9b8af98e-0407-49a2-bce9-3620f29c513a\/tags?per_page=20&include=uuid&page=1","label":"1","page":1,"active":true},{"url":"https:\/\/foundation-api-canary.poli.digital\/v3\/accounts\/9b8af98e-0407-49a2-bce9-3620f29c513a\/tags?per_page=20&include=uuid&page=2","label":"2","page":2,"active":false},{"url":"https:\/\/foundation-api-canary.poli.digital\/v3\/accounts\/9b8af98e-0407-49a2-bce9-3620f29c513a\/tags?per_page=20&include=uuid&page=3","label":"3","page":3,"active":false},{"url":"https:\/\/foundation-api-canary.poli.digital\/v3\/accounts\/9b8af98e-0407-49a2-bce9-3620f29c513a\/tags?per_page=20&include=uuid&page=4","label":"4","page":4,"active":false},{"url":"https:\/\/foundation-api-canary.poli.digital\/v3\/accounts\/9b8af98e-0407-49a2-bce9-3620f29c513a\/tags?per_page=20&include=uuid&page=5","label":"5","page":5,"active":false},{"url":"https:\/\/foundation-api-canary.poli.digital\/v3\/accounts\/9b8af98e-0407-49a2-bce9-3620f29c513a\/tags?per_page=20&include=uuid&page=6","label":"6","page":6,"active":false},{"url":"https:\/\/foundation-api-canary.poli.digital\/v3\/accounts\/9b8af98e-0407-49a2-bce9-3620f29c513a\/tags?per_page=20&include=uuid&page=7","label":"7","page":7,"active":false},{"url":"https:\/\/foundation-api-canary.poli.digital\/v3\/accounts\/9b8af98e-0407-49a2-bce9-3620f29c513a\/tags?per_page=20&include=uuid&page=8","label":"8","page":8,"active":false},{"url":"https:\/\/foundation-api-canary.poli.digital\/v3\/accounts\/9b8af98e-0407-49a2-bce9-3620f29c513a\/tags?per_page=20&include=uuid&page=9","label":"9","page":9,"active":false},{"url":"https:\/\/foundation-api-canary.poli.digital\/v3\/accounts\/9b8af98e-0407-49a2-bce9-3620f29c513a\/tags?per_page=20&include=uuid&page=10","label":"10","page":10,"active":false},{"url":null,"label":"...","active":false},{"url":"https:\/\/foundation-api-canary.poli.digital\/v3\/accounts\/9b8af98e-0407-49a2-bce9-3620f29c513a\/tags?per_page=20&include=uuid&page=113","label":"113","page":113,"active":false},{"url":"https:\/\/foundation-api-canary.poli.digital\/v3\/accounts\/9b8af98e-0407-49a2-bce9-3620f29c513a\/tags?per_page=20&include=uuid&page=114","label":"114","page":114,"active":false},{"url":"https:\/\/foundation-api-canary.poli.digital\/v3\/accounts\/9b8af98e-0407-49a2-bce9-3620f29c513a\/tags?per_page=20&include=uuid&page=2","label":"Pr\u00f3xima","page":2,"active":false}],"meta":{"current_page":1,"first_page_url":"https:\/\/foundation-api-canary.poli.digital\/v3\/accounts\/9b8af98e-0407-49a2-bce9-3620f29c513a\/tags?per_page=20&include=uuid&page=1","from":1,"last_page":114,"last_page_url":"https:\/\/foundation-api-canary.poli.digital\/v3\/accounts\/9b8af98e-0407-49a2-bce9-3620f29c513a\/tags?per_page=20&include=uuid&page=114","next_page_url":"https:\/\/foundation-api-canary.poli.digital\/v3\/accounts\/9b8af98e-0407-49a2-bce9-3620f29c513a\/tags?per_page=20&include=uuid&page=2","path":"https:\/\/foundation-api-canary.poli.digital\/v3\/accounts\/9b8af98e-0407-49a2-bce9-3620f29c513a\/tags","per_page":20,"prev_page_url":null,"to":20,"total":2278}}
