{"data":[{"uuid":"b3ae617f-06b7-11f1-b89b-06b3482cde9b"},{"uuid":"9baac225-07dc-47c3-84db-2a2924419a14"},{"uuid":"9c8395bc-cfe9-4d8d-98e1-21e6d67766da"},{"uuid":"9c8395b9-dd83-4a80-931d-6bc159c12d25"},{"uuid":"9c8395ad-dd2d-4113-af45-73f0441da04f"}],"links":[{"url":null,"label":"Anterior","page":null,"active":false},{"url":"https:\/\/foundation-api-canary.poli.digital\/v3\/accounts\/9b8af98e-0407-49a2-bce9-3620f29c513a\/tags?order=name&per_page=5&include=name&page=1","label":"1","page":1,"active":true},{"url":"https:\/\/foundation-api-canary.poli.digital\/v3\/accounts\/9b8af98e-0407-49a2-bce9-3620f29c513a\/tags?order=name&per_page=5&include=name&page=2","label":"2","page":2,"active":false},{"url":"https:\/\/foundation-api-canary.poli.digital\/v3\/accounts\/9b8af98e-0407-49a2-bce9-3620f29c513a\/tags?order=name&per_page=5&include=name&page=3","label":"3","page":3,"active":false},{"url":"https:\/\/foundation-api-canary.poli.digital\/v3\/accounts\/9b8af98e-0407-49a2-bce9-3620f29c513a\/tags?order=name&per_page=5&include=name&page=4","label":"4","page":4,"active":false},{"url":"https:\/\/foundation-api-canary.poli.digital\/v3\/accounts\/9b8af98e-0407-49a2-bce9-3620f29c513a\/tags?order=name&per_page=5&include=name&page=5","label":"5","page":5,"active":false},{"url":"https:\/\/foundation-api-canary.poli.digital\/v3\/accounts\/9b8af98e-0407-49a2-bce9-3620f29c513a\/tags?order=name&per_page=5&include=name&page=6","label":"6","page":6,"active":false},{"url":"https:\/\/foundation-api-canary.poli.digital\/v3\/accounts\/9b8af98e-0407-49a2-bce9-3620f29c513a\/tags?order=name&per_page=5&include=name&page=7","label":"7","page":7,"active":false},{"url":"https:\/\/foundation-api-canary.poli.digital\/v3\/accounts\/9b8af98e-0407-49a2-bce9-3620f29c513a\/tags?order=name&per_page=5&include=name&page=8","label":"8","page":8,"active":false},{"url":"https:\/\/foundation-api-canary.poli.digital\/v3\/accounts\/9b8af98e-0407-49a2-bce9-3620f29c513a\/tags?order=name&per_page=5&include=name&page=9","label":"9","page":9,"active":false},{"url":"https:\/\/foundation-api-canary.poli.digital\/v3\/accounts\/9b8af98e-0407-49a2-bce9-3620f29c513a\/tags?order=name&per_page=5&include=name&page=10","label":"10","page":10,"active":false},{"url":null,"label":"...","active":false},{"url":"https:\/\/foundation-api-canary.poli.digital\/v3\/accounts\/9b8af98e-0407-49a2-bce9-3620f29c513a\/tags?order=name&per_page=5&include=name&page=455","label":"455","page":455,"active":false},{"url":"https:\/\/foundation-api-canary.poli.digital\/v3\/accounts\/9b8af98e-0407-49a2-bce9-3620f29c513a\/tags?order=name&per_page=5&include=name&page=456","label":"456","page":456,"active":false},{"url":"https:\/\/foundation-api-canary.poli.digital\/v3\/accounts\/9b8af98e-0407-49a2-bce9-3620f29c513a\/tags?order=name&per_page=5&include=name&page=2","label":"Pr\u00f3xima","page":2,"active":false}],"meta":{"current_page":1,"first_page_url":"https:\/\/foundation-api-canary.poli.digital\/v3\/accounts\/9b8af98e-0407-49a2-bce9-3620f29c513a\/tags?order=name&per_page=5&include=name&page=1","from":1,"last_page":456,"last_page_url":"https:\/\/foundation-api-canary.poli.digital\/v3\/accounts\/9b8af98e-0407-49a2-bce9-3620f29c513a\/tags?order=name&per_page=5&include=name&page=456","next_page_url":"https:\/\/foundation-api-canary.poli.digital\/v3\/accounts\/9b8af98e-0407-49a2-bce9-3620f29c513a\/tags?order=name&per_page=5&include=name&page=2","path":"https:\/\/foundation-api-canary.poli.digital\/v3\/accounts\/9b8af98e-0407-49a2-bce9-3620f29c513a\/tags","per_page":5,"prev_page_url":null,"to":5,"total":2278}}
HTTP:200
