{"data":[{"uuid":"9bfd28dd-982e-4823-a850-6eab1d004795"},{"uuid":"9bfd28dd-e404-4383-a59f-3c61bcb20e98"},{"uuid":"9bfd28df-74ca-4b42-a7ee-c8ff129015c9"},{"uuid":"9c839540-259b-4a8b-9af6-5397ca2a6a56"},{"uuid":"9c83954b-e61a-4e6e-a527-24b7e959e421"}],"links":[{"url":null,"label":"Anterior","page":null,"active":false},{"url":"https:\/\/foundation-api-canary.poli.digital\/v3\/accounts\/9b8af98e-0407-49a2-bce9-3620f29c513a\/tags?search=test&per_page=5&include=name&page=1","label":"1","page":1,"active":true},{"url":"https:\/\/foundation-api-canary.poli.digital\/v3\/accounts\/9b8af98e-0407-49a2-bce9-3620f29c513a\/tags?search=test&per_page=5&include=name&page=2","label":"2","page":2,"active":false},{"url":"https:\/\/foundation-api-canary.poli.digital\/v3\/accounts\/9b8af98e-0407-49a2-bce9-3620f29c513a\/tags?search=test&per_page=5&include=name&page=3","label":"3","page":3,"active":false},{"url":"https:\/\/foundation-api-canary.poli.digital\/v3\/accounts\/9b8af98e-0407-49a2-bce9-3620f29c513a\/tags?search=test&per_page=5&include=name&page=4","label":"4","page":4,"active":false},{"url":"https:\/\/foundation-api-canary.poli.digital\/v3\/accounts\/9b8af98e-0407-49a2-bce9-3620f29c513a\/tags?search=test&per_page=5&include=name&page=5","label":"5","page":5,"active":false},{"url":"https:\/\/foundation-api-canary.poli.digital\/v3\/accounts\/9b8af98e-0407-49a2-bce9-3620f29c513a\/tags?search=test&per_page=5&include=name&page=6","label":"6","page":6,"active":false},{"url":"https:\/\/foundation-api-canary.poli.digital\/v3\/accounts\/9b8af98e-0407-49a2-bce9-3620f29c513a\/tags?search=test&per_page=5&include=name&page=7","label":"7","page":7,"active":false},{"url":"https:\/\/foundation-api-canary.poli.digital\/v3\/accounts\/9b8af98e-0407-49a2-bce9-3620f29c513a\/tags?search=test&per_page=5&include=name&page=8","label":"8","page":8,"active":false},{"url":"https:\/\/foundation-api-canary.poli.digital\/v3\/accounts\/9b8af98e-0407-49a2-bce9-3620f29c513a\/tags?search=test&per_page=5&include=name&page=9","label":"9","page":9,"active":false},{"url":"https:\/\/foundation-api-canary.poli.digital\/v3\/accounts\/9b8af98e-0407-49a2-bce9-3620f29c513a\/tags?search=test&per_page=5&include=name&page=10","label":"10","page":10,"active":false},{"url":null,"label":"...","active":false},{"url":"https:\/\/foundation-api-canary.poli.digital\/v3\/accounts\/9b8af98e-0407-49a2-bce9-3620f29c513a\/tags?search=test&per_page=5&include=name&page=43","label":"43","page":43,"active":false},{"url":"https:\/\/foundation-api-canary.poli.digital\/v3\/accounts\/9b8af98e-0407-49a2-bce9-3620f29c513a\/tags?search=test&per_page=5&include=name&page=44","label":"44","page":44,"active":false},{"url":"https:\/\/foundation-api-canary.poli.digital\/v3\/accounts\/9b8af98e-0407-49a2-bce9-3620f29c513a\/tags?search=test&per_page=5&include=name&page=2","label":"Pr\u00f3xima","page":2,"active":false}],"meta":{"current_page":1,"first_page_url":"https:\/\/foundation-api-canary.poli.digital\/v3\/accounts\/9b8af98e-0407-49a2-bce9-3620f29c513a\/tags?search=test&per_page=5&include=name&page=1","from":1,"last_page":44,"last_page_url":"https:\/\/foundation-api-canary.poli.digital\/v3\/accounts\/9b8af98e-0407-49a2-bce9-3620f29c513a\/tags?search=test&per_page=5&include=name&page=44","next_page_url":"https:\/\/foundation-api-canary.poli.digital\/v3\/accounts\/9b8af98e-0407-49a2-bce9-3620f29c513a\/tags?search=test&per_page=5&include=name&page=2","path":"https:\/\/foundation-api-canary.poli.digital\/v3\/accounts\/9b8af98e-0407-49a2-bce9-3620f29c513a\/tags","per_page":5,"prev_page_url":null,"to":5,"total":219}}
HTTP:200
