{"data":[{"uuid":"9b97f1c7-2fe3-4a36-91ac-2f6c882b287c","category":"DEFAULT"},{"uuid":"9c8390a6-7792-45bb-b328-e569f5c188e9","category":"DEFAULT"},{"uuid":"9c8390a8-5e2c-4a89-b7e3-cb3d009cafcd","category":"DEFAULT"},{"uuid":"9c8390ac-5edf-4fc8-9de0-2c23e2d6cd5a","category":"DEFAULT"},{"uuid":"9c8390b0-37cd-4a38-b9fb-f431d49eebda","category":"DEFAULT"},{"uuid":"9c8390b0-be20-4dac-9926-54de211ff255","category":"DEFAULT"},{"uuid":"9c8390b5-ebba-4ef1-98de-c9f4ac6a2e6e","category":"DEFAULT"},{"uuid":"9c8390b7-4ee6-409d-bc82-fed131861c4b","category":"DEFAULT"},{"uuid":"9c8390b7-67a9-4b2f-a379-0d934325f233","category":"DEFAULT"},{"uuid":"9c8390bc-1489-4006-8d03-166eb735ee3c","category":"DEFAULT"},{"uuid":"9c8390bd-f443-4c93-8476-622408ae67ea","category":"DEFAULT"},{"uuid":"9c8390be-bea1-463c-83cf-d97b0593e29b","category":"DEFAULT"},{"uuid":"9c8390ca-0d6c-4c0c-a098-d2405c4d46ea","category":"DEFAULT"},{"uuid":"9c8390cd-58d1-4125-9c62-ccbcef9612f6","category":"SUCCESS"},{"uuid":"9c8390cd-6202-4737-b569-3d4748a8bcf2","category":"DEFAULT"},{"uuid":"9c8390ce-2385-44ce-9a48-7c07dc9225bd","category":"DEFAULT"},{"uuid":"9c8390d1-53e3-4d75-b6ab-922ddbcc427d","category":"DEFAULT"},{"uuid":"9c8390d3-5c18-48bb-865a-3c5c5d03c37b","category":"DEFAULT"},{"uuid":"9c8390d4-a6f8-47a4-973a-72e56c062ca6","category":"DEFAULT"},{"uuid":"9c8390d5-4914-4717-a163-3938c2dd235f","category":"DEFAULT"},{"uuid":"9c8390d5-4bab-4d1e-8f11-8fe507abf8d7","category":"DEFAULT"},{"uuid":"9c8390d5-4e30-4d37-a2bd-d7672b8f850d","category":"DEFAULT"},{"uuid":"9c8390d5-d445-47fa-ac44-8ddd3d56d654","category":"DEFAULT"},{"uuid":"9c8390d6-8952-4b4f-8338-2ef199956a76","category":"DEFAULT"},{"uuid":"9c8390d6-9311-4c12-a3bc-ae8dcdccc663","category":"DEFAULT"},{"uuid":"9c8390d6-9721-43c5-8f91-c70dccb35432","category":"DEFAULT"},{"uuid":"9c8390d6-9b1c-4339-b93e-3b7bc39aa616","category":"DEFAULT"},{"uuid":"9c8390d7-09b5-452a-bf69-a113ffefafe1","category":"DEFAULT"},{"uuid":"9c8390d7-0cd8-4ea5-8581-32356676b5aa","category":"DEFAULT"},{"uuid":"9c8390d7-0f24-41b7-9892-0aba459f3536","category":"DEFAULT"},{"uuid":"9c8390d8-948c-4ba9-8dea-9930938860c6","category":"DEFAULT"},{"uuid":"9c839108-482b-4dc2-84f3-867df8c212d1","category":"DEFAULT"},{"uuid":"9c839122-5779-4d1b-bc3c-47d0380cd7f6","category":"DEFAULT"},{"uuid":"9b97f1c7-29d5-401d-b939-cbd5dd728e2c","category":"DEFAULT"},{"uuid":"9bfd28dd-95ef-4a2a-b07b-f15a49cb94e9","category":"SUCCESS"},{"uuid":"9bfd28dd-e404-4383-a59f-3c61bcb20e98","category":"DEFAULT"},{"uuid":"9bfd28dd-e673-48e7-9241-44cd9e608ea2","category":"DEFAULT"},{"uuid":"9baac1e6-f927-4d9f-b5e4-1c7aa2acb6b8","category":"DEFAULT"},{"uuid":"9b97f1c7-2be6-4c7a-ba47-4a4588ea15bf","category":"DEFAULT"},{"uuid":"9bfd28de-0b1c-45b8-a353-463708767cbe","category":"DEFAULT"},{"uuid":"9bfd28df-25a2-4046-800a-2f62cd4e57d0","category":"DEFAULT"},{"uuid":"9bfd28df-277f-4862-99e2-b39e50db50d7","category":"DEFAULT"},{"uuid":"9bfd28df-2aa0-49d7-a0e2-829b3a985ef3","category":"DEFAULT"},{"uuid":"9bb42939-e7a0-43fd-991d-1316e0e54650","category":"DEFAULT"},{"uuid":"9bfd28df-2e0a-4071-8d33-bda3c9e33e54","category":"DEFAULT"},{"uuid":"9bfd28df-338b-44bc-8ae0-239db1cf6891","category":"DEFAULT"},{"uuid":"9bfd28df-38a7-477a-b6de-3b9ee1414e89","category":"DEFAULT"},{"uuid":"9bfd28df-3ab0-4c00-a78a-597015fb1f47","category":"DEFAULT"},{"uuid":"9bfd28df-3d19-469a-92ab-0e7225f5d3cd","category":"DEFAULT"},{"uuid":"9bfd28df-43c8-4b5e-9145-3e601d41345e","category":"DEFAULT"}],"links":[{"url":null,"label":"Anterior","page":null,"active":false},{"url":"https:\/\/foundation-api-canary.poli.digital\/v3\/accounts\/9b8af98e-0407-49a2-bce9-3620f29c513a\/tags?category=DEFAULT%2CSUCCESS&per_page=50&include=category&page=1","label":"1","page":1,"active":true},{"url":"https:\/\/foundation-api-canary.poli.digital\/v3\/accounts\/9b8af98e-0407-49a2-bce9-3620f29c513a\/tags?category=DEFAULT%2CSUCCESS&per_page=50&include=category&page=2","label":"2","page":2,"active":false},{"url":"https:\/\/foundation-api-canary.poli.digital\/v3\/accounts\/9b8af98e-0407-49a2-bce9-3620f29c513a\/tags?category=DEFAULT%2CSUCCESS&per_page=50&include=category&page=3","label":"3","page":3,"active":false},{"url":"https:\/\/foundation-api-canary.poli.digital\/v3\/accounts\/9b8af98e-0407-49a2-bce9-3620f29c513a\/tags?category=DEFAULT%2CSUCCESS&per_page=50&include=category&page=2","label":"Pr\u00f3xima","page":2,"active":false}],"meta":{"current_page":1,"first_page_url":"https:\/\/foundation-api-canary.poli.digital\/v3\/accounts\/9b8af98e-0407-49a2-bce9-3620f29c513a\/tags?category=DEFAULT%2CSUCCESS&per_page=50&include=category&page=1","from":1,"last_page":3,"last_page_url":"https:\/\/foundation-api-canary.poli.digital\/v3\/accounts\/9b8af98e-0407-49a2-bce9-3620f29c513a\/tags?category=DEFAULT%2CSUCCESS&per_page=50&include=category&page=3","next_page_url":"https:\/\/foundation-api-canary.poli.digital\/v3\/accounts\/9b8af98e-0407-49a2-bce9-3620f29c513a\/tags?category=DEFAULT%2CSUCCESS&per_page=50&include=category&page=2","path":"https:\/\/foundation-api-canary.poli.digital\/v3\/accounts\/9b8af98e-0407-49a2-bce9-3620f29c513a\/tags","per_page":50,"prev_page_url":null,"to":50,"total":124}}
HTTP:200
