{"data":[{"uuid":"9b97f1c7-2fe3-4a36-91ac-2f6c882b287c","status":"ACTIVE","category":"DEFAULT"}],"links":[{"url":null,"label":"Anterior","page":null,"active":false},{"url":"https:\/\/foundation-api-canary.poli.digital\/v3\/accounts\/9b8af98e-0407-49a2-bce9-3620f29c513a\/tags?per_page=1&include=name%2Ccategory%2Cstatus%2Cdescription%2Ccreated_at&page=1","label":"1","page":1,"active":true},{"url":"https:\/\/foundation-api-canary.poli.digital\/v3\/accounts\/9b8af98e-0407-49a2-bce9-3620f29c513a\/tags?per_page=1&include=name%2Ccategory%2Cstatus%2Cdescription%2Ccreated_at&page=2","label":"2","page":2,"active":false},{"url":"https:\/\/foundation-api-canary.poli.digital\/v3\/accounts\/9b8af98e-0407-49a2-bce9-3620f29c513a\/tags?per_page=1&include=name%2Ccategory%2Cstatus%2Cdescription%2Ccreated_at&page=3","label":"3","page":3,"active":false},{"url":"https:\/\/foundation-api-canary.poli.digital\/v3\/accounts\/9b8af98e-0407-49a2-bce9-3620f29c513a\/tags?per_page=1&include=name%2Ccategory%2Cstatus%2Cdescription%2Ccreated_at&page=4","label":"4","page":4,"active":false},{"url":"https:\/\/foundation-api-canary.poli.digital\/v3\/accounts\/9b8af98e-0407-49a2-bce9-3620f29c513a\/tags?per_page=1&include=name%2Ccategory%2Cstatus%2Cdescription%2Ccreated_at&page=5","label":"5","page":5,"active":false},{"url":"https:\/\/foundation-api-canary.poli.digital\/v3\/accounts\/9b8af98e-0407-49a2-bce9-3620f29c513a\/tags?per_page=1&include=name%2Ccategory%2Cstatus%2Cdescription%2Ccreated_at&page=6","label":"6","page":6,"active":false},{"url":"https:\/\/foundation-api-canary.poli.digital\/v3\/accounts\/9b8af98e-0407-49a2-bce9-3620f29c513a\/tags?per_page=1&include=name%2Ccategory%2Cstatus%2Cdescription%2Ccreated_at&page=7","label":"7","page":7,"active":false},{"url":"https:\/\/foundation-api-canary.poli.digital\/v3\/accounts\/9b8af98e-0407-49a2-bce9-3620f29c513a\/tags?per_page=1&include=name%2Ccategory%2Cstatus%2Cdescription%2Ccreated_at&page=8","label":"8","page":8,"active":false},{"url":"https:\/\/foundation-api-canary.poli.digital\/v3\/accounts\/9b8af98e-0407-49a2-bce9-3620f29c513a\/tags?per_page=1&include=name%2Ccategory%2Cstatus%2Cdescription%2Ccreated_at&page=9","label":"9","page":9,"active":false},{"url":"https:\/\/foundation-api-canary.poli.digital\/v3\/accounts\/9b8af98e-0407-49a2-bce9-3620f29c513a\/tags?per_page=1&include=name%2Ccategory%2Cstatus%2Cdescription%2Ccreated_at&page=10","label":"10","page":10,"active":false},{"url":null,"label":"...","active":false},{"url":"https:\/\/foundation-api-canary.poli.digital\/v3\/accounts\/9b8af98e-0407-49a2-bce9-3620f29c513a\/tags?per_page=1&include=name%2Ccategory%2Cstatus%2Cdescription%2Ccreated_at&page=2277","label":"2277","page":2277,"active":false},{"url":"https:\/\/foundation-api-canary.poli.digital\/v3\/accounts\/9b8af98e-0407-49a2-bce9-3620f29c513a\/tags?per_page=1&include=name%2Ccategory%2Cstatus%2Cdescription%2Ccreated_at&page=2278","label":"2278","page":2278,"active":false},{"url":"https:\/\/foundation-api-canary.poli.digital\/v3\/accounts\/9b8af98e-0407-49a2-bce9-3620f29c513a\/tags?per_page=1&include=name%2Ccategory%2Cstatus%2Cdescription%2Ccreated_at&page=2","label":"Pr\u00f3xima","page":2,"active":false}],"meta":{"current_page":1,"first_page_url":"https:\/\/foundation-api-canary.poli.digital\/v3\/accounts\/9b8af98e-0407-49a2-bce9-3620f29c513a\/tags?per_page=1&include=name%2Ccategory%2Cstatus%2Cdescription%2Ccreated_at&page=1","from":1,"last_page":2278,"last_page_url":"https:\/\/foundation-api-canary.poli.digital\/v3\/accounts\/9b8af98e-0407-49a2-bce9-3620f29c513a\/tags?per_page=1&include=name%2Ccategory%2Cstatus%2Cdescription%2Ccreated_at&page=2278","next_page_url":"https:\/\/foundation-api-canary.poli.digital\/v3\/accounts\/9b8af98e-0407-49a2-bce9-3620f29c513a\/tags?per_page=1&include=name%2Ccategory%2Cstatus%2Cdescription%2Ccreated_at&page=2","path":"https:\/\/foundation-api-canary.poli.digital\/v3\/accounts\/9b8af98e-0407-49a2-bce9-3620f29c513a\/tags","per_page":1,"prev_page_url":null,"to":1,"total":2278}}
HTTP:200
